%YAML 1.1
%TAG !u! tag:unity3d.com,2011:
--- !u!114 &11400000
MonoBehaviour:
  m_ObjectHideFlags: 0
  m_CorrespondingSourceObject: {fileID: 0}
  m_PrefabInstance: {fileID: 0}
  m_PrefabAsset: {fileID: 0}
  m_GameObject: {fileID: 0}
  m_Enabled: 1
  m_EditorHideFlags: 0
  m_Script: {fileID: 11500000, guid: 24e963681b12554488db14c66e762f80, type: 3}
  m_Name: Dagger
  m_EditorClassIdentifier: 
  weight: 1
  sprite: {fileID: 693384124834221472, guid: cd1f195f2929938479bdc46402f75715, type: 3}
  prefab: {fileID: 0}
  damageMin: 1
  damageMax: 4
  damageAdd: 0
  rangeMin: 1
  rangeMax: 0
  durability: 10
