%YAML 1.1
%TAG !u! tag:unity3d.com,2011:
--- !u!114 &11400000
MonoBehaviour:
  m_ObjectHideFlags: 0
  m_CorrespondingSourceObject: {fileID: 0}
  m_PrefabInstance: {fileID: 0}
  m_PrefabAsset: {fileID: 0}
  m_GameObject: {fileID: 0}
  m_Enabled: 1
  m_EditorHideFlags: 0
  m_Script: {fileID: 11500000, guid: 2bc54c0454497474fb59399d417a7c4c, type: 3}
  m_Name: Mage
  m_EditorClassIdentifier: 
  weight: 3
  move: 1
  speed: 1
  attack: 1
  defense: 1
  evasion: 1
  retaliation: 1
  description: 
